{
    "defaultSeverity": "error",
    "extends": [
        "tslint:recommended"
    ],
    "jsRules": {},
    "rules": {
      "max-line-length": false,
      "no-any": true,
      "object-literal-sort-keys": false,
      "quotemark": [true, "single"],
      "trailing-comma": [true, "never"],
      "one-line": [false]
    },
    "rulesDirectory": []
}
